{ "height":32,
 "layers":[
        {
         "data":[3, 3, 4, 4, 1, 3, 2, 3, 2, 2, 1, 4, 3, 4, 4, 2, 3, 1, 3, 2, 4, 6, 11, 7, 2, 1, 1, 4, 4, 4, 4, 4, 1, 2, 1, 3, 2, 3, 4, 1, 3, 4, 1, 4, 3, 3, 3, 1, 3, 3, 1, 2, 1, 10, 20, 15, 7, 6, 7, 2, 3, 2, 1, 4, 2, 2, 1, 2, 2, 2, 1, 1, 2, 1, 3, 2, 1, 2, 1, 1, 1, 1, 1, 1, 1, 5, 9, 13, 15, 14, 15, 7, 4, 4, 1, 1, 4, 3, 3, 4, 1, 1, 1, 2, 3, 3, 3, 1, 1, 1, 1, 1, 3, 4, 3, 1, 1, 2, 3, 5, 13, 16, 13, 12, 4, 4, 2, 1, 4, 3, 2, 2, 3, 1, 3, 2, 4, 2, 4, 4, 2, 3, 3, 4, 3, 4, 3, 2, 1, 4, 1, 4, 5, 8, 5, 8, 3, 3, 3, 4, 1, 1, 2, 3, 2, 3, 1, 1, 2, 2, 1, 2, 3, 4, 3, 2, 40, 37, 1, 1, 1, 2, 4, 2, 2, 1, 4, 2, 2, 2, 2, 1, 2, 3, 4, 3, 1, 1, 2, 2, 40, 37, 2, 1, 1, 3, 40, 41, 48, 45, 41, 37, 1, 3, 3, 3, 1, 2, 4, 2, 2, 3, 3, 1, 3, 3, 4, 3, 2, 1, 2, 40, 48, 45, 41, 41, 41, 41, 48, 35, 36, 33, 34, 45, 37, 3, 3, 40, 37, 3, 3, 3, 4, 1, 2, 4, 1, 2, 1, 1, 1, 2, 40, 48, 34, 35, 36, 36, 35, 36, 35, 35, 34, 35, 34, 35, 45, 41, 41, 48, 45, 37, 4, 1, 2, 2, 1, 3, 2, 3, 1, 40, 41, 37, 44, 36, 35, 35, 36, 36, 35, 34, 36, 34, 33, 34, 33, 34, 33, 35, 35, 35, 33, 45, 41, 37, 3, 2, 1, 2, 4, 1, 4, 44, 34, 45, 48, 33, 35, 36, 34, 36, 34, 33, 36, 33, 35, 36, 35, 33, 36, 34, 33, 35, 35, 35, 34, 42, 3, 3, 2, 1, 3, 1, 1, 39, 47, 34, 35, 35, 35, 36, 33, 36, 33, 33, 35, 33, 36, 33, 33, 34, 36, 33, 36, 46, 47, 34, 46, 38, 4, 3, 3, 4, 2, 3, 4, 1, 39, 47, 35, 35, 35, 33, 33, 35, 36, 35, 34, 34, 35, 35, 34, 36, 36, 35, 46, 38, 39, 43, 38, 3, 1, 1, 3, 1, 4, 2, 4, 4, 40, 48, 34, 34, 35, 36, 36, 33, 36, 36, 34, 36, 35, 34, 35, 33, 35, 36, 42, 1, 3, 3, 2, 2, 2, 1, 3, 3, 3, 2, 4, 4, 44, 36, 35, 33, 35, 34, 35, 33, 36, 36, 33, 36, 36, 35, 35, 33, 33, 36, 45, 37, 3, 2, 2, 4, 3, 4, 2, 3, 4, 1, 2, 40, 48, 35, 36, 34, 35, 35, 36, 36, 36, 36, 33, 35, 35, 36, 35, 34, 36, 34, 33, 42, 2, 3, 2, 4, 1, 4, 1, 3, 3, 1, 4, 39, 43, 47, 34, 35, 35, 35, 34, 33, 33, 35, 33, 34, 34, 34, 35, 33, 36, 34, 36, 45, 41, 37, 1, 4, 2, 1, 4, 3, 2, 2, 2, 1, 40, 48, 33, 36, 36, 35, 36, 35, 33, 35, 36, 34, 34, 46, 43, 43, 47, 34, 34, 33, 36, 42, 2, 2, 1, 2, 2, 1, 3, 2, 3, 4, 39, 47, 34, 36, 33, 35, 36, 33, 46, 43, 47, 35, 33, 42, 2, 2, 44, 33, 33, 36, 46, 38, 4, 4, 1, 1, 3, 4, 2, 3, 1, 3, 40, 48, 35, 34, 35, 36, 33, 36, 42, 2, 39, 47, 46, 38, 3, 2, 39, 47, 35, 36, 45, 37, 4, 4, 3, 1, 4, 2, 3, 2, 4, 4, 39, 47, 34, 35, 35, 35, 33, 35, 42, 2, 3, 39, 38, 3, 3, 1, 2, 44, 46, 43, 47, 42, 4, 1, 2, 4, 4, 4, 3, 3, 2, 4, 4, 44, 33, 35, 34, 34, 35, 33, 45, 37, 1, 4, 2, 4, 2, 1, 40, 48, 45, 37, 39, 38, 1, 1, 2, 3, 2, 2, 4, 1, 3, 3, 4, 44, 34, 46, 47, 46, 47, 46, 43, 38, 1, 3, 2, 1, 4, 4, 39, 47, 36, 42, 2, 3, 3, 1, 2, 4, 3, 1, 3, 3, 2, 1, 2, 39, 43, 38, 39, 38, 39, 38, 3, 2, 4, 2, 4, 1, 4, 4, 3, 39, 43, 38, 3, 4, 1, 1, 3, 2, 4, 2, 3, 3, 4, 3, 2, 1, 3, 4, 2, 4, 3, 4, 1, 3, 1, 1, 3, 3, 4, 4, 4, 4, 1, 2, 2, 1, 4, 3, 3, 1, 2, 2, 3, 3, 3, 1, 4, 1, 3, 3, 4, 1, 1, 2, 4, 1, 3, 1, 1, 6, 7, 2, 1, 3, 1, 3, 1, 2, 3, 1, 1, 3, 1, 4, 3, 3, 3, 4, 3, 1, 1, 3, 2, 3, 3, 3, 2, 1, 4, 6, 7, 10, 15, 7, 6, 11, 7, 3, 3, 3, 1, 4, 3, 4, 3, 4, 3, 3, 3, 4, 4, 1, 3, 4, 1, 3, 1, 2, 2, 6, 11, 14, 15, 14, 18, 15, 14, 19, 15, 7, 3, 4, 2, 2, 2, 2, 4, 4, 3, 3, 1, 3, 2, 4, 4, 2, 2, 3, 3, 4, 2, 5, 13, 20, 20, 16, 13, 20, 17, 19, 18, 12, 4, 3, 3, 2, 4, 4, 3, 3, 3, 3, 4, 1, 3, 3, 3, 2, 2, 2, 4, 2, 3, 3, 10, 20, 16, 8, 5, 13, 16, 13, 16, 8, 3, 1, 3, 4, 3, 3, 3, 2, 3, 3, 3, 4, 3, 2, 1, 4, 2, 4, 4, 1, 1, 1, 5, 9, 8, 1, 2, 5, 8, 5, 8, 3, 3, 3, 3, 3, 2, 2, 1, 3, 3, 4, 3, 2, 1, 1, 2, 1, 3, 4, 2, 1, 2, 3, 2, 3, 1, 1, 3, 3, 3, 3, 2, 1, 2, 2, 4, 2, 3, 2, 3, 3],
         "height":32,
         "name":"map",
         "opacity":1,
         "type":"tilelayer",
         "visible":true,
         "width":32,
         "x":0,
         "y":0
        }, 
        {
         "height":32,
         "name":"Coins",
         "objects":[
                {
                 "gid":63,
                 "height":0,
                 "name":"Coin",
                 "properties":
                    {

                    },
                 "type":"",
                 "visible":true,
                 "width":0,
                 "x":192,
                 "y":384
                }, 
                {
                 "gid":63,
                 "height":0,
                 "name":"Coin",
                 "properties":
                    {

                    },
                 "type":"",
                 "visible":true,
                 "width":0,
                 "x":544,
                 "y":288
                }, 
                {
                 "gid":63,
                 "height":0,
                 "name":"Coin",
                 "properties":
                    {

                    },
                 "type":"",
                 "visible":true,
                 "width":0,
                 "x":384,
                 "y":448
                }, 
                {
                 "gid":63,
                 "height":0,
                 "name":"Coin",
                 "properties":
                    {

                    },
                 "type":"",
                 "visible":true,
                 "width":0,
                 "x":768,
                 "y":320
                }, 
                {
                 "gid":63,
                 "height":0,
                 "name":"Coin",
                 "properties":
                    {

                    },
                 "type":"",
                 "visible":true,
                 "width":0,
                 "x":320,
                 "y":288
                }, 
                {
                 "gid":63,
                 "height":0,
                 "name":"Coin",
                 "properties":
                    {

                    },
                 "type":"",
                 "visible":true,
                 "width":0,
                 "x":544,
                 "y":416
                }, 
                {
                 "gid":63,
                 "height":0,
                 "name":"Coin",
                 "properties":
                    {

                    },
                 "type":"",
                 "visible":true,
                 "width":0,
                 "x":416,
                 "y":384
                }, 
                {
                 "gid":63,
                 "height":0,
                 "name":"Coin",
                 "properties":
                    {

                    },
                 "type":"",
                 "visible":true,
                 "width":0,
                 "x":640,
                 "y":512
                }, 
                {
                 "gid":63,
                 "height":0,
                 "name":"Coin",
                 "properties":
                    {

                    },
                 "type":"",
                 "visible":true,
                 "width":0,
                 "x":480,
                 "y":480
                }, 
                {
                 "gid":63,
                 "height":0,
                 "name":"Coin",
                 "properties":
                    {

                    },
                 "type":"",
                 "visible":true,
                 "width":0,
                 "x":288,
                 "y":544
                }, 
                {
                 "gid":63,
                 "height":0,
                 "name":"Coin",
                 "properties":
                    {

                    },
                 "type":"",
                 "visible":true,
                 "width":0,
                 "x":224,
                 "y":640
                }, 
                {
                 "gid":63,
                 "height":0,
                 "name":"Coin",
                 "properties":
                    {

                    },
                 "type":"",
                 "visible":true,
                 "width":0,
                 "x":768,
                 "y":576
                }, 
                {
                 "gid":63,
                 "height":0,
                 "name":"Coin",
                 "properties":
                    {

                    },
                 "type":"",
                 "visible":true,
                 "width":0,
                 "x":320,
                 "y":704
                }],
         "opacity":1,
         "type":"objectgroup",
         "visible":true,
         "width":32,
         "x":0,
         "y":0
        }],
 "orientation":"orthogonal",
 "properties":
    {

    },
 "tileheight":32,
 "tilesets":[
        {
         "firstgid":1,
         "image":"..\/img\/ocean.png",
         "imageheight":256,
         "imagewidth":256,
         "margin":0,
         "name":"tiles",
         "properties":
            {

            },
         "spacing":0,
         "terrains":[
                {
                 "name":"grass-water",
                 "tile":-1
                }, 
                {
                 "name":"dirt-water",
                 "tile":-1
                }],
         "tileheight":32,
         "tileproperties":
            {
             "0":
                {
                 "wall":"1"
                },
             "1":
                {
                 "wall":"1"
                },
             "2":
                {
                 "wall":"1"
                },
             "3":
                {
                 "wall":"1"
                }
            },
         "tiles":
            {
             "10":
                {
                 "terrain":[-1, -1, 1, 1]
                },
             "11":
                {
                 "terrain":[1, -1, 1, -1]
                },
             "12":
                {
                 "terrain":[1, 1, -1, 1]
                },
             "13":
                {
                 "terrain":[-1, 1, 1, 1]
                },
             "14":
                {
                 "terrain":[1, -1, 1, 1]
                },
             "15":
                {
                 "terrain":[1, 1, 1, -1]
                },
             "16":
                {
                 "terrain":[1, 1, 1, 1]
                },
             "17":
                {
                 "terrain":[1, 1, 1, 1]
                },
             "18":
                {
                 "terrain":[1, 1, 1, 1]
                },
             "19":
                {
                 "terrain":[1, 1, 1, 1]
                },
             "32":
                {
                 "terrain":[0, 0, 0, 0]
                },
             "33":
                {
                 "terrain":[0, 0, 0, 0]
                },
             "34":
                {
                 "terrain":[0, 0, 0, 0]
                },
             "35":
                {
                 "terrain":[0, 0, 0, 0]
                },
             "36":
                {
                 "terrain":[-1, -1, 0, -1]
                },
             "37":
                {
                 "terrain":[0, -1, -1, -1]
                },
             "38":
                {
                 "terrain":[-1, 0, -1, -1]
                },
             "39":
                {
                 "terrain":[-1, -1, -1, 0]
                },
             "4":
                {
                 "terrain":[-1, 1, -1, -1]
                },
             "40":
                {
                 "terrain":[-1, -1, 0, 0]
                },
             "41":
                {
                 "terrain":[0, -1, 0, -1]
                },
             "42":
                {
                 "terrain":[0, 0, -1, -1]
                },
             "43":
                {
                 "terrain":[-1, 0, -1, 0]
                },
             "44":
                {
                 "terrain":[0, -1, 0, 0]
                },
             "45":
                {
                 "terrain":[0, 0, 0, -1]
                },
             "46":
                {
                 "terrain":[0, 0, -1, 0]
                },
             "47":
                {
                 "terrain":[-1, 0, 0, 0]
                },
             "5":
                {
                 "terrain":[-1, -1, -1, 1]
                },
             "6":
                {
                 "terrain":[-1, -1, 1, -1]
                },
             "7":
                {
                 "terrain":[1, -1, -1, -1]
                },
             "8":
                {
                 "terrain":[1, 1, -1, -1]
                },
             "9":
                {
                 "terrain":[-1, 1, -1, 1]
                }
            },
         "tilewidth":32
        }],
 "tilewidth":32,
 "version":1,
 "width":32
}