{
	"siteTitle": "Isometric OLM",
	"siteDescription": "Visualization of progress using isometric plane splited like Voronoi diagram.",
	"siteKeywords": "visualization, learning, progress, isometric, voronoi"
}